(:key1 89ll:key2 0X0100F:key3 "iddqd":)
(:key1 12ll:key2 0x9abc:key3 "qwerty":)
(:key3 "Another":key1 gdfgll:key2 0b1110001:)
(:key1 89ll:key2 0X0100F:key3 "qerty":)
(:key1 3ll:key2 0X0100F:key3 "start":)
(:key1 50ll:key2 0b1010101:key3 "qdqw":)
(:key1 50000:key2 0b1010101:key3 "sax":)
(:key3 "Another":key1 100:key2 1110001:)
(:key1 36ll:key3 "stars":key2 0X3a6c:)
(:key1 89ll:key2 0xF31:key3 "iddqd":)